1
4,11,8,13,9,14,7,5,2,12,6,10,0,3,1
5,6,3,0,10,2,7,1,13,8,9,14,12,4,11
13,10,0,1,4,12,2,9,14,7,11,8,5,3,6
13,1,5,6,7,9,4,2,14,8,0,12,11,10,3
5,6,1,8,12,4,14,9,3,2,11,13,7,0,10
4,14,12,0,13,1,5,11,9,6,10,2,8,3,7
1,3,8,6,5,11,7,12,10,9,2,13,14,4,0
0,4,1,7,9,14,6,11,12,2,8,5,13,3,10
8,2,5,1,12,9,3,11,13,0,14,7,10,4,6
9,0,8,1,3,12,2,10,11,6,4,7,14,5,13
7,11,8,0,2,1,3,9,10,13,6,12,4,14,5
4,12,3,1,6,13,2,0,7,14,5,9,8,10,11
7,0,14,5,1,6,4,12,11,8,2,10,3,13,9
9,14,6,3,10,11,1,8,13,0,4,12,2,5,7
0,8,12,5,11,13,14,7,3,4,1,2,9,6,10
