1
8,3,7,11,9,4,2,5,12,10,14,13,6,1,0
8,12,6,3,7,1,5,9,10,14,11,0,4,2,13
13,9,6,1,5,4,11,12,8,0,2,10,14,7,3
0,7,1,4,5,11,9,12,14,10,2,3,8,6,13
7,5,12,9,8,1,3,6,10,0,2,11,14,4,13
0,12,11,10,6,7,1,14,2,13,4,8,5,9,3
11,0,3,8,1,10,5,4,7,2,9,14,6,12,13
8,3,9,4,11,12,7,2,1,5,0,14,10,13,6
11,2,0,14,6,12,3,9,10,13,1,7,4,5,8
3,9,12,4,1,13,10,5,0,14,11,8,6,2,7
3,7,8,0,12,11,14,13,9,1,6,4,10,2,5
8,9,5,6,3,2,4,12,11,1,10,13,0,14,7
6,13,0,4,12,5,3,7,11,2,10,9,1,8,14
14,10,3,7,0,1,11,6,12,9,13,8,4,5,2
3,0,7,11,8,13,14,6,4,1,2,12,10,5,9
