1
13,1,5,0,12,8,10,2,9,11,7,6,3,4,14
6,3,5,8,2,0,12,13,4,7,1,9,10,14,11
6,10,5,1,3,0,4,2,13,11,12,9,7,8,14
14,13,11,1,6,9,7,2,5,8,4,10,3,12,0
14,13,11,1,6,9,7,2,5,8,4,10,3,12,0
11,12,2,0,4,1,3,7,5,13,8,9,14,10,6
9,1,8,0,5,2,4,13,7,6,3,12,14,11,10
14,8,1,7,0,9,13,11,5,4,3,10,12,6,2
2,9,12,13,6,1,3,8,7,10,11,4,14,0,5
6,3,5,8,2,0,12,13,4,7,1,9,10,14,11
9,1,8,0,5,2,4,13,7,6,3,12,14,11,10
14,13,11,1,6,9,7,2,5,8,4,10,3,12,0
14,13,11,1,6,9,7,2,5,8,4,10,3,12,0
6,11,10,2,12,8,13,9,14,3,4,1,7,0,5
9,1,8,0,5,2,4,13,7,6,3,12,14,11,10
