1
4,5,2,0,10,11,3,6,9,12,8,13,7,1,14
10,6,14,2,3,11,12,5,4,0,7,13,8,1,9
11,5,6,9,14,10,12,0,2,3,4,1,8,13,7
5,6,1,10,11,12,4,9,14,7,8,3,0,13,2
5,11,10,8,7,1,6,0,3,4,13,2,9,12,14
11,5,6,9,14,10,12,0,2,3,4,1,8,13,7
5,11,10,8,7,1,6,0,3,4,13,2,9,12,14
10,12,7,4,9,5,1,8,3,14,13,11,2,6,0
9,5,2,3,8,7,6,12,14,4,10,1,0,11,13
3,12,4,0,11,13,2,9,5,1,14,6,10,8,7
5,11,10,8,7,1,6,0,3,4,13,2,9,12,14
10,6,14,2,3,11,12,5,4,0,7,13,8,1,9
4,6,13,0,5,2,1,9,11,14,12,10,7,3,8
13,11,6,8,2,12,1,3,4,9,0,14,7,10,5
5,11,10,8,7,1,6,0,3,4,13,2,9,12,14
