1
10,1,4,7,11,8,2,5,9,0,3,14,12,6,13
11,3,5,4,2,7,12,13,14,0,9,6,1,8,10
12,11,0,6,10,5,4,13,1,3,7,9,2,14,8
13,5,10,1,9,2,11,4,6,0,12,14,3,7,8
9,8,6,10,1,12,3,7,5,2,0,4,14,11,13
0,11,6,12,7,3,14,8,4,5,13,9,1,10,2
1,0,7,10,5,3,8,14,13,6,11,4,2,12,9
6,10,4,5,8,11,0,13,14,12,1,3,2,7,9
14,8,12,1,11,0,5,6,13,9,10,2,7,3,4
10,4,9,5,12,13,1,11,0,7,2,8,14,3,6
5,8,12,3,1,10,6,7,13,0,4,11,14,2,9
14,3,12,6,10,7,0,11,5,13,4,9,2,8,1
5,1,7,13,4,0,10,9,2,11,6,3,8,12,14
0,2,11,6,9,10,7,4,8,14,13,3,5,12,1
5,8,13,7,12,2,6,11,9,1,0,10,4,14,3
