1
2,6,8,1,14,9,7,5,12,0,4,3,11,13,10
10,14,6,3,12,0,5,2,8,1,7,13,9,4,11
14,12,4,11,0,9,2,1,10,7,3,5,6,8,13
1,7,6,2,14,10,5,12,9,11,4,8,13,3,0
1,9,6,2,0,7,12,10,8,11,4,14,13,5,3
14,10,4,12,11,2,7,6,8,9,1,5,3,0,13
8,14,11,6,0,3,2,1,10,4,7,5,13,12,9
4,0,11,9,2,6,8,7,13,14,1,10,5,12,3
7,8,14,11,6,3,13,1,2,10,12,0,9,4,5
2,9,12,0,4,11,3,7,10,13,5,14,1,6,8
5,1,8,0,14,7,6,4,11,10,12,2,3,9,13
12,1,6,13,0,8,9,5,3,7,4,10,2,14,11
6,14,0,11,2,7,4,8,5,12,3,1,9,10,13
6,10,12,13,14,1,9,4,7,0,11,3,8,2,5
0,3,8,2,14,7,4,5,12,13,9,10,11,6,1
