4
0,14,2,5,9,10,8,7,11,3,12,6,1,4,13
2,14,3,8,4,0,9,11,10,6,12,5,7,13,1
9,0,13,3,7,14,2,11,5,12,1,10,8,6,4
12,5,4,9,6,14,3,11,7,0,8,2,10,13,1
11,7,3,0,6,1,9,13,8,14,12,10,2,4,5
8,5,0,7,2,13,4,14,6,10,12,11,9,3,1
1,3,0,10,11,13,2,5,8,6,9,14,4,12,7
3,1,8,9,5,12,6,7,0,14,13,11,2,10,4
13,5,6,14,10,0,2,9,8,1,3,4,7,11,12
1,8,3,4,7,9,0,12,11,14,13,2,10,6,5
2,13,7,0,5,9,10,14,3,6,4,11,1,12,8
0,11,2,14,7,12,10,13,8,9,6,4,3,1,5
1,0,8,2,7,12,11,14,13,5,9,6,4,10,3
10,11,8,12,7,3,6,13,2,14,4,5,1,0,9
6,10,9,7,5,2,8,3,13,1,0,4,11,14,12
