130
5,1,0,3,8,4,9,7,2,6
2,1,7,0,4,6,9,8,3,5
1,3,2,4,5,0,6,9,7,8
2,9,8,1,4,0,3,5,6,7
2,7,8,1,0,6,5,9,4,3
3,4,2,9,5,8,1,0,6,7
8,1,6,4,7,2,9,0,3,5
6,4,2,8,1,3,9,0,7,5
6,1,4,2,5,7,3,9,8,0
7,4,1,3,2,9,6,5,8,0
