1
6,8,3,5,14,2,9,7,4,13,12,10,1,11,0
3,10,8,2,5,1,13,9,4,6,14,0,12,7,11
13,0,12,2,7,9,5,3,1,4,14,6,11,10,8
1,4,14,11,0,9,8,6,7,13,3,2,10,5,12
4,5,14,1,3,7,13,0,11,12,9,6,8,10,2
4,14,10,0,12,1,13,2,11,5,3,7,6,9,8
8,2,12,4,3,5,0,9,7,13,6,1,14,10,11
9,14,11,6,8,5,2,4,1,10,13,0,7,3,12
6,2,9,12,1,13,4,7,5,3,14,10,11,8,0
3,0,10,1,6,13,7,9,4,14,11,2,12,5,8
8,0,3,5,12,11,10,2,7,4,14,1,9,13,6
12,8,5,13,1,11,14,3,2,6,0,4,9,10,7
1,6,4,12,3,7,8,9,5,13,11,14,0,2,10
13,1,14,9,3,6,7,5,4,2,10,0,11,12,8
2,8,6,11,13,1,12,7,5,4,0,3,14,10,9
