4
8,13,14,3,7,1,2,0,9,10,12,11,4,6,5
7,8,0,6,4,10,14,9,11,12,2,13,3,1,5
5,7,1,13,10,6,3,9,4,2,11,8,0,14,12
9,1,0,11,5,2,14,4,12,13,7,8,3,6,10
10,8,1,5,0,6,7,2,11,13,3,4,9,12,14
4,1,9,7,8,12,11,3,0,13,10,2,5,14,6
9,3,10,13,5,12,6,7,2,14,4,11,0,1,8
6,8,5,0,1,9,2,13,11,3,12,10,4,14,7
0,8,2,7,1,14,11,12,10,3,9,5,6,4,13
12,1,10,3,11,0,14,4,6,7,8,5,2,9,13
10,0,1,11,2,8,12,14,7,13,3,5,4,6,9
10,5,1,13,7,0,14,2,3,9,6,4,11,12,8
5,6,7,12,9,0,14,2,4,11,1,8,10,13,3
8,6,3,10,11,13,5,1,0,4,12,14,7,2,9
9,11,6,3,8,13,2,12,7,10,14,5,1,4,0
