1
2,6,10,1,5,3,4,8,12,14,0,7,11,13,9
10,9,14,5,11,8,2,12,6,7,3,1,0,13,4
5,12,2,4,10,11,13,9,3,6,1,0,8,7,14
14,5,0,1,13,9,12,4,7,6,11,2,8,10,3
5,3,4,8,2,1,10,6,12,7,9,0,11,13,14
0,10,12,2,11,6,1,5,3,13,7,9,4,8,14
1,8,9,3,0,10,7,11,12,6,13,14,5,2,4
8,14,5,13,2,6,0,4,11,1,7,3,9,10,12
13,2,5,12,6,1,8,10,3,14,7,11,9,0,4
10,2,11,14,8,6,4,0,9,3,1,5,13,7,12
10,2,8,12,4,5,0,14,7,9,6,1,3,13,11
3,1,10,7,0,5,9,12,2,13,4,6,8,14,11
3,7,11,9,0,2,1,13,4,10,8,6,5,14,12
9,1,6,3,14,13,11,7,2,8,12,10,5,4,0
14,9,0,11,8,13,5,6,1,3,4,12,10,2,7
