10
9,2,14,11,12,6,13,10,4,3,8,0,7,5,1
5,2,7,1,12,0,14,8,4,9,13,6,11,10,3
10,2,7,11,3,4,0,14,8,6,13,5,9,12,1
1,2,3,10,7,9,0,8,5,6,11,13,14,4,12
4,14,13,3,6,1,8,9,2,12,0,10,11,5,7
14,4,0,13,9,12,7,8,6,1,3,5,2,10,11
5,7,1,11,10,14,4,3,12,13,9,0,8,2,6
6,9,13,14,0,12,3,7,1,8,11,4,2,10,5
5,0,4,10,3,9,12,8,6,13,7,1,14,11,2
10,14,8,6,4,3,1,11,5,9,12,0,13,2,7
1,6,3,12,5,8,14,11,2,0,9,13,4,7,10
8,6,14,10,4,1,3,9,2,11,12,13,5,7,0
13,6,11,14,9,8,1,0,2,10,12,7,5,3,4
14,0,7,10,11,9,4,12,5,8,3,2,1,13,6
3,5,14,10,8,9,0,12,1,13,7,4,6,2,11
