1
14,5,10,1,9,0,8,7,4,6,12,2,13,3,11
10,13,6,3,7,2,5,0,1,12,9,8,11,4,14
11,9,8,14,2,1,0,5,4,10,6,13,3,7,12
2,1,10,7,0,5,8,14,3,4,6,13,11,12,9
6,14,7,11,9,1,2,8,4,0,10,13,12,3,5
13,12,1,2,14,9,4,10,5,8,11,0,6,7,3
14,8,13,10,3,0,9,4,6,11,7,1,2,5,12
13,8,4,14,2,1,9,12,5,7,11,10,6,3,0
9,11,14,5,8,6,2,0,10,3,1,13,12,4,7
9,0,6,2,5,11,4,14,10,3,8,7,13,1,12
3,0,1,4,8,13,14,9,5,10,11,2,6,7,12
14,10,1,5,3,6,8,9,0,2,11,12,13,7,4
4,14,0,7,3,10,11,6,12,13,2,8,1,5,9
6,3,9,13,4,2,14,11,1,12,10,5,7,0,8
2,8,0,9,14,11,6,10,4,5,12,3,7,13,1
