1
11,8,14,13,4,5,7,0,2,3,10,6,9,12,1
2,5,1,3,14,9,7,0,4,6,10,12,8,11,13
10,12,13,2,9,5,14,1,0,3,8,11,7,6,4
1,14,5,3,2,9,13,11,6,0,10,12,8,4,7
0,14,9,1,5,3,6,12,8,4,2,10,7,11,13
5,10,13,0,2,12,1,14,9,7,4,11,8,6,3
3,11,8,4,10,14,2,0,9,7,5,1,12,6,13
4,1,2,5,3,10,7,6,13,0,14,9,8,12,11
13,7,1,3,9,2,5,12,14,6,11,8,4,0,10
14,0,11,4,2,6,3,12,10,13,5,1,8,9,7
6,8,9,12,3,1,13,0,5,7,10,11,4,2,14
10,3,8,9,7,14,12,0,5,2,11,6,1,4,13
5,11,10,3,7,4,13,6,9,8,14,0,1,2,12
0,14,1,2,7,13,11,5,9,8,6,3,12,4,10
5,14,4,2,8,11,13,6,9,7,0,10,1,12,3
