1
2,6,5,13,0,11,9,8,7,10,1,3,14,12,4
10,3,11,0,2,5,7,14,6,9,13,1,8,12,4
11,2,1,0,8,5,10,4,7,14,9,12,3,13,6
10,9,2,14,4,13,7,1,5,0,12,3,8,6,11
11,2,0,14,1,10,12,4,13,3,9,6,7,5,8
7,12,10,11,4,13,14,6,2,8,0,1,5,9,3
0,8,2,7,11,14,10,5,4,1,3,12,9,6,13
4,8,5,9,0,2,6,12,1,3,14,13,11,7,10
5,13,2,14,3,11,1,6,10,8,4,9,7,12,0
2,10,4,0,8,11,13,6,12,14,5,1,9,3,7
3,11,7,13,9,8,6,14,12,1,10,5,4,2,0
8,14,9,10,12,5,4,2,3,1,13,6,11,0,7
7,6,11,0,3,13,14,4,1,2,12,5,8,10,9
14,1,13,6,4,2,12,10,9,3,5,11,8,0,7
8,10,11,9,5,6,0,7,14,2,3,4,13,1,12
